%YAML 1.1
%TAG !u! tag:unity3d.com,2011:
--- !u!1045 &1
EditorBuildSettings:
  m_ObjectHideFlags: 0
  serializedVersion: 2
  m_Scenes:
  - enabled: 1
    path: Assets/Scenes/SampleScene.unity
    guid: 2cda990e2423bbf4892e6590ba056729
  - enabled: 1
    path: Assets/Scenes/GameOver.unity
    guid: ab052bb4a9f87b94598486bf60a90d2e
  - enabled: 1
    path: Assets/Scenes/nivel1.unity
    guid: f73f2a64e3ab1d7438e83ef78534934a
  m_configObjects: {}
